<html> 
	<h2 align='center'>  Решение  </h2>  
	<h3><i>Вариант задачи без учета дополнительной информации.</i></h3>
	<p>     
		Множество решений <b>D</b> = {d<sub>1</sub>, d<sub>2</sub>}: <br/>
		d<sub>1</sub> - решение делать ставку;<br/>
		d<sub>2</sub> - решение не делать ставку.<br/><br/>

		Случайная величина <b>Y</b> = {y<sub>1</sub>, y<sub>2</sub>}:<br/>
		y<sub>1</sub> - тренер принал решение попытаться забить гол;<br/>
		y<sub>2</sub> - тренер принял решение совершить тачдаун.<br/><br/> 

		<b>X</b> = {x<sub>1</sub>, x<sub>2</sub>}:<br/>
		x<sub>1</sub> - команда победила;<br/>
		x<sub>2</sub> - команда проиграла. <br/><br/>

		Вероятность события x<sub>i</sub> в случае пинятия тренером решения y<sub>j</sub> будем обозначать как 
		p<sub>ij</sub> = Pr{X = x<sub>i</sub> / Y = y<sub>j</sub>}:<br/>
		p<sub>11</sub> = p11 ;<br/>
		p<sub>21</sub> = 1 - p<sub>11</sub> = 1 - p11 = p21 ;<br/>
		p<sub>12</sub> = p12 ;<br/>
		p<sub>22</sub> = 1 - p<sub>12</sub> = 1 - p12 = p22 ;<br/><br/>

		Множество альтернатив <b>A</b> = {a<sub>1</sub>, a<sub>2</sub>, a<sub>3</sub>, a<sub>4</sub>, a<sub>5</sub>, a<sub>6</sub>}:<br/>
		a<sub>1</sub> - тренер принял решение попытаться забить гол, Нэнси решила не делать ставку; <br/>
		a<sub>2</sub> - тренер принял решение попытаться забить гол, Нэнси сделала ставку, команда победила;<br/> 
		a<sub>3</sub> - тренер принял решение попытаться забить гол, Нэнси сделала ставку, команда проиграла; <br/>
		a<sub>4</sub> - тренер принял решение совершить тачдаун, Нэнси решила не делать ставку; <br/>
		a<sub>5</sub> - тренер принял решение совершить тачдаун, Нэнси сделала ставку, команда победила; <br/>
		a<sub>6</sub> - тренер принял решение совершить тачдаун, Нэнси сделала ставку, команда проиграла. <br/><br/>

		Каждой из возможных альтернатив a<sub>i</sub> поставим в соответствие ценность исхода 
		v<sub>i</sub> = v(a<sub>i</sub>):<br/>
		V(y<sub>1</sub>, d<sub>2</sub>) = v(a<sub>1</sub>) = v<sub>1</sub> = 0; <br/>
		V(y<sub>1</sub>, d<sub>1</sub>, x<sub>1</sub>) = v(a<sub>2</sub>) = v<sub>2</sub> = 0.25; <br/>
		V(y<sub>1</sub>, d<sub>1</sub>, x<sub>2</sub>) = v(a<sub>3</sub>) = v<sub>3</sub> = -1; <br/>
		V(y<sub>2</sub>, d<sub>2</sub>) = v(a<sub>4</sub>) = v<sub>4</sub> = 0; <br/>
		V(y<sub>2</sub>, d<sub>1</sub>, x<sub>1</sub>) = v(a<sub>5</sub>) = v<sub>5</sub> = 2; <br/>
		V(y<sub>2</sub>, d<sub>1</sub>, x<sub>2</sub>) = v(a<sub>6</sub>) = v<sub>6</sub> = -1. <br/><br/>

		При Y = y<sub>1</sub>:  <br/>
		u(d<sub>1</sub>) = p<sub>11</sub>v<sub>2</sub> + p<sub>21</sub>v<sub>3</sub> = p<sub>11</sub>
			v<sub>2</sub> + (1 - p<sub>11</sub>)v<sub>3</sub> = (v<sub>2</sub> - v<sub>3</sub>)p<sub>11</sub> + 
			v<sub>3</sub> = 1.25p<sub>11</sub> - 1 = 1.25 &#xB7; p11 - 1 = uy1d1 ; <br/>
		u(d<sub>2</sub>) = v<sub>1</sub> = 0. <br/><br/>

		При Y = y<sub>2</sub>: <br/>
		u(d<sub>1</sub>) = p<sub>12</sub>v<sub>5</sub> + p<sub>22</sub>v<sub>6</sub> = 3p<sub>12</sub> - 1 = 
			3 &#xB7; p12 - 1 = uy2d1 ; <br/>
		u(d<sub>2</sub>) = v<sub>4</sub> = 0.<br/><br/>

		<b>Вероятность безразличия</b><br/>
		Вероятность безразличия p&#772; - значение p<sub>12</sub>, при котором принятое
		решение не оказывает влияния на математическое ожидание получаемого <br/>дохода, т. е. 
		3p&#772; - 1 = 1.25p<sub>11</sub> - 1, следовательно: p&#772; = 5p<sub>11</sub> / 12 = 5 &#xB7; p11 / 12 = pdef .<br/><br/>